<?xml version="1.0" encoding="UTF-8"?>
<!DOCTYPE svg PUBLIC "-//W3C//DTD SVG 1.1//EN" "http://www.w3.org/Graphics/SVG/1.1/DTD/svg11.dtd">
<svg xmlns="http://www.w3.org/2000/svg" version="1.1" width="80px" height="80px" style="shape-rendering:geometricPrecision; text-rendering:geometricPrecision; image-rendering:optimizeQuality; fill-rule:evenodd; clip-rule:evenodd" xmlns:xlink="http://www.w3.org/1999/xlink">
<g><path style="opacity:0.688" fill="#ffb141" d="M 1.5,10.5 C 1.63945,8.66298 2.30612,8.32964 3.5,9.5C 3.04311,10.2975 2.37644,10.6309 1.5,10.5 Z"/></g>
<g><path style="opacity:0.688" fill="#ffb141" d="M 5.5,8.5 C 7.33702,8.63945 7.67036,9.30612 6.5,10.5C 5.70245,10.0431 5.36912,9.37644 5.5,8.5 Z"/></g>
<g><path style="opacity:0.686" fill="#ffb041" d="M 9.5,8.5 C 11.337,8.63945 11.6704,9.30612 10.5,10.5C 9.70245,10.0431 9.36912,9.37644 9.5,8.5 Z"/></g>
<g><path style="opacity:0.686" fill="#ffb041" d="M 13.5,8.5 C 15.337,8.63945 15.6704,9.30612 14.5,10.5C 13.7025,10.0431 13.3691,9.37644 13.5,8.5 Z"/></g>
<g><path style="opacity:0.686" fill="#ffb041" d="M 17.5,8.5 C 19.337,8.63945 19.6704,9.30612 18.5,10.5C 17.7025,10.0431 17.3691,9.37644 17.5,8.5 Z"/></g>
<g><path style="opacity:0.686" fill="#ffb041" d="M 21.5,8.5 C 23.337,8.63945 23.6704,9.30612 22.5,10.5C 21.7025,10.0431 21.3691,9.37644 21.5,8.5 Z"/></g>
<g><path style="opacity:0.686" fill="#ffb041" d="M 25.5,8.5 C 27.337,8.63945 27.6704,9.30612 26.5,10.5C 25.7025,10.0431 25.3691,9.37644 25.5,8.5 Z"/></g>
<g><path style="opacity:0.686" fill="#ffb041" d="M 29.5,8.5 C 31.337,8.63945 31.6704,9.30612 30.5,10.5C 29.7025,10.0431 29.3691,9.37644 29.5,8.5 Z"/></g>
<g><path style="opacity:0.686" fill="#ffb041" d="M 33.5,8.5 C 35.337,8.63945 35.6704,9.30612 34.5,10.5C 33.7025,10.0431 33.3691,9.37644 33.5,8.5 Z"/></g>
<g><path style="opacity:0.865" fill="#ffb141" d="M 79.5,56.5 C 79.5,59.1667 79.5,61.8333 79.5,64.5C 75.5,64.5 71.5,64.5 67.5,64.5C 67.0339,69.9641 64.0339,72.6308 58.5,72.5C 52.9661,72.6308 49.9661,69.9641 49.5,64.5C 41.5,64.5 33.5,64.5 25.5,64.5C 25.0339,69.9641 22.0339,72.6308 16.5,72.5C 10.9661,72.6308 7.96611,69.9641 7.5,64.5C 5.83333,64.5 4.16667,64.5 2.5,64.5C 2.5,60.1667 2.5,55.8333 2.5,51.5C 1.5,51.5 0.5,51.5 -0.5,51.5C -0.5,48.5 -0.5,45.5 -0.5,42.5C 1.34351,44.2789 2.01017,46.6122 1.5,49.5C 2.97782,49.238 4.31116,49.5713 5.5,50.5C 4.56716,54.4295 4.23383,58.4295 4.5,62.5C 5.5,62.5 6.5,62.5 7.5,62.5C 7.92353,57.0817 10.9235,54.415 16.5,54.5C 22.0339,54.3692 25.0339,57.0359 25.5,62.5C 31.8333,62.5 38.1667,62.5 44.5,62.5C 44.2733,45.2536 44.2733,27.9203 44.5,10.5C 42.076,10.8076 39.7427,10.4742 37.5,9.5C 40.4281,8.51592 43.4281,8.18259 46.5,8.5C 46.5,12.8333 46.5,17.1667 46.5,21.5C 54.1739,21.3336 61.8406,21.5003 69.5,22C 76.6097,32.4864 79.9431,43.9864 79.5,56.5 Z M 46.5,23.5 C 51.1667,23.5 55.8333,23.5 60.5,23.5C 60.3339,29.1764 60.5006,34.8431 61,40.5C 63.74,41.144 66.24,42.3107 68.5,44C 71.2263,44.1816 73.8929,44.6816 76.5,45.5C 70.7355,45.8959 69.0688,48.7292 71.5,54C 73.2556,54.2022 74.9223,54.7022 76.5,55.5C 76.1667,56.1667 75.8333,56.8333 75.5,57.5C 77.0049,58.8415 77.6715,60.5082 77.5,62.5C 74.1667,62.5 70.8333,62.5 67.5,62.5C 67.0339,57.0359 64.0339,54.3692 58.5,54.5C 52.9235,54.415 49.9235,57.0817 49.5,62.5C 48.5,62.5 47.5,62.5 46.5,62.5C 46.5,49.5 46.5,36.5 46.5,23.5 Z M 62.5,23.5 C 65.0991,23.5494 67.2658,24.5494 69,26.5C 71.171,31.6837 73.3376,36.8503 75.5,42C 74.1667,42.6667 72.8333,42.6667 71.5,42C 68.6777,40.4256 65.8444,38.9256 63,37.5C 62.5008,32.8452 62.3342,28.1785 62.5,23.5 Z M 52.5,28.5 C 53.4959,28.4142 54.3292,28.7476 55,29.5C 55.6667,32.5 55.6667,35.5 55,38.5C 54,39.8333 53,39.8333 52,38.5C 51.2534,35.0764 51.42,31.7431 52.5,28.5 Z M 74.5,48.5 C 75.5862,48.62 76.2528,49.2867 76.5,50.5C 75.6964,52.9573 74.6964,52.9573 73.5,50.5C 73.8627,49.8165 74.1961,49.1499 74.5,48.5 Z M 13.5,57.5 C 22.8176,57.6546 24.8176,61.488 19.5,69C 10.0959,69.141 8.09595,65.3076 13.5,57.5 Z M 55.5,57.5 C 64.8176,57.6546 66.8176,61.488 61.5,69C 52.0959,69.141 50.0959,65.3076 55.5,57.5 Z"/></g>
<g><path style="opacity:0.688" fill="#ffb141" d="M -0.5,10.5 C 0.166667,10.5 0.833333,10.5 1.5,10.5C 1.5,11.8333 0.833333,12.5 -0.5,12.5C -0.5,11.8333 -0.5,11.1667 -0.5,10.5 Z"/></g>
<g><path style="opacity:0.688" fill="#ffb141" d="M -0.5,14.5 C 2.16667,15.1667 2.16667,15.8333 -0.5,16.5C -0.5,15.8333 -0.5,15.1667 -0.5,14.5 Z"/></g>
<g><path style="opacity:0.688" fill="#ffb141" d="M -0.5,18.5 C 2.16667,19.1667 2.16667,19.8333 -0.5,20.5C -0.5,19.8333 -0.5,19.1667 -0.5,18.5 Z"/></g>
<g><path style="opacity:0.688" fill="#ffb141" d="M -0.5,22.5 C 2.16667,23.1667 2.16667,23.8333 -0.5,24.5C -0.5,23.8333 -0.5,23.1667 -0.5,22.5 Z"/></g>
<g><path style="opacity:0.688" fill="#ffb141" d="M -0.5,26.5 C 2.16667,27.1667 2.16667,27.8333 -0.5,28.5C -0.5,27.8333 -0.5,27.1667 -0.5,26.5 Z"/></g>
<g><path style="opacity:0.899" fill="#ffb042" d="M 49.5,26.5 C 52.1667,26.5 54.8333,26.5 57.5,26.5C 57.5,31.5 57.5,36.5 57.5,41.5C 54.8333,41.5 52.1667,41.5 49.5,41.5C 49.5,36.5 49.5,31.5 49.5,26.5 Z M 52.5,28.5 C 51.42,31.7431 51.2534,35.0764 52,38.5C 53,39.8333 54,39.8333 55,38.5C 55.6667,35.5 55.6667,32.5 55,29.5C 54.3292,28.7476 53.4959,28.4142 52.5,28.5 Z"/></g>
<g><path style="opacity:0.688" fill="#ffb141" d="M -0.5,30.5 C 2.16667,31.1667 2.16667,31.8333 -0.5,32.5C -0.5,31.8333 -0.5,31.1667 -0.5,30.5 Z"/></g>
<g><path style="opacity:0.688" fill="#ffb141" d="M -0.5,34.5 C 2.16667,35.1667 2.16667,35.8333 -0.5,36.5C -0.5,35.8333 -0.5,35.1667 -0.5,34.5 Z"/></g>
<g><path style="opacity:0.688" fill="#ffb141" d="M -0.5,38.5 C 2.16667,39.1667 2.16667,39.8333 -0.5,40.5C -0.5,39.8333 -0.5,39.1667 -0.5,38.5 Z"/></g>
<g><path style="opacity:0.766" fill="#ffb041" d="M 7.5,49.5 C 9.33702,49.6395 9.67036,50.3061 8.5,51.5C 7.70245,51.0431 7.36912,50.3764 7.5,49.5 Z"/></g>
<g><path style="opacity:0.766" fill="#ffb041" d="M 11.5,49.5 C 13.337,49.6395 13.6704,50.3061 12.5,51.5C 11.7025,51.0431 11.3691,50.3764 11.5,49.5 Z"/></g>
<g><path style="opacity:0.766" fill="#ffb041" d="M 15.5,49.5 C 17.337,49.6395 17.6704,50.3061 16.5,51.5C 15.7025,51.0431 15.3691,50.3764 15.5,49.5 Z"/></g>
<g><path style="opacity:0.766" fill="#ffb041" d="M 19.5,49.5 C 21.337,49.6395 21.6704,50.3061 20.5,51.5C 19.7025,51.0431 19.3691,50.3764 19.5,49.5 Z"/></g>
<g><path style="opacity:0.766" fill="#ffb041" d="M 23.5,49.5 C 25.337,49.6395 25.6704,50.3061 24.5,51.5C 23.7025,51.0431 23.3691,50.3764 23.5,49.5 Z"/></g>
<g><path style="opacity:0.766" fill="#ffb041" d="M 27.5,49.5 C 29.337,49.6395 29.6704,50.3061 28.5,51.5C 27.7025,51.0431 27.3691,50.3764 27.5,49.5 Z"/></g>
<g><path style="opacity:0.766" fill="#ffb041" d="M 31.5,49.5 C 33.337,49.6395 33.6704,50.3061 32.5,51.5C 31.7025,51.0431 31.3691,50.3764 31.5,49.5 Z"/></g>
<g><path style="opacity:0.766" fill="#ffb041" d="M 35.5,49.5 C 37.337,49.6395 37.6704,50.3061 36.5,51.5C 35.7025,51.0431 35.3691,50.3764 35.5,49.5 Z"/></g>
<g><path style="opacity:0.766" fill="#ffb041" d="M 39.5,49.5 C 41.337,49.6395 41.6704,50.3061 40.5,51.5C 39.7025,51.0431 39.3691,50.3764 39.5,49.5 Z"/></g>
<g><path style="opacity:0.766" fill="#ffb041" d="M 67.5,56.5 C 69.337,56.6395 69.6704,57.3061 68.5,58.5C 67.7025,58.0431 67.3691,57.3764 67.5,56.5 Z"/></g>
<g><path style="opacity:0.766" fill="#ffb041" d="M 71.5,56.5 C 73.337,56.6395 73.6704,57.3061 72.5,58.5C 71.7025,58.0431 71.3691,57.3764 71.5,56.5 Z"/></g>
<g><path style="opacity:0.76" fill="#ffaf43" d="M 13.5,60.5 C 15.5,60.5 17.5,60.5 19.5,60.5C 19.5,62.5 19.5,64.5 19.5,66.5C 17.5,66.5 15.5,66.5 13.5,66.5C 13.5,64.5 13.5,62.5 13.5,60.5 Z"/></g>
<g><path style="opacity:0.76" fill="#ffaf43" d="M 55.5,60.5 C 57.5,60.5 59.5,60.5 61.5,60.5C 61.5,62.5 61.5,64.5 61.5,66.5C 59.5,66.5 57.5,66.5 55.5,66.5C 55.5,64.5 55.5,62.5 55.5,60.5 Z"/></g>
</svg>
