<?xml version="1.0" encoding="UTF-8"?>
<!DOCTYPE svg PUBLIC "-//W3C//DTD SVG 1.1//EN" "http://www.w3.org/Graphics/SVG/1.1/DTD/svg11.dtd">
<svg xmlns="http://www.w3.org/2000/svg" version="1.1" width="64px" height="64px"
     style="shape-rendering:geometricPrecision; text-rendering:geometricPrecision; image-rendering:optimizeQuality; fill-rule:evenodd; clip-rule:evenodd">
    <g>
        <path style="opacity:0.791" fill="#ffb042"
              d="M 47.5,4.5 C 48.9778,4.23798 50.3112,4.57131 51.5,5.5C 53.3333,8.5 55.1667,11.5 57,14.5C 57.4999,25.8284 57.6665,37.1618 57.5,48.5C 48.9172,51.3604 40.2505,54.027 31.5,56.5C 22.6659,54.389 14.1659,51.389 6,47.5C 5.33333,36.8333 5.33333,26.1667 6,15.5C 13.2499,12.0822 20.7499,9.24889 28.5,7C 31.8708,6.2563 35.0375,6.7563 38,8.5C 41.2909,7.24323 44.4576,5.9099 47.5,4.5 Z M 45.5,9.5 C 46.9778,9.23798 48.3112,9.57131 49.5,10.5C 50.1279,12.2581 51.1279,13.7581 52.5,15C 46.0616,17.701 39.5616,20.201 33,22.5C 31.5,20.3333 30,18.1667 28.5,16C 34.4613,14.2957 40.128,12.1291 45.5,9.5 Z M 23.5,13.5 C 23.5,14.8333 23.5,16.1667 23.5,17.5C 20.6274,19.0733 17.9607,18.7399 15.5,16.5C 17.8584,14.7134 20.525,13.7134 23.5,13.5 Z M 9.5,19.5 C 16.0312,21.7327 22.5312,24.0661 29,26.5C 29.4997,34.8267 29.6664,43.16 29.5,51.5C 22.7627,49.6983 16.096,47.6983 9.5,45.5C 9.5,36.8333 9.5,28.1667 9.5,19.5 Z M 51.5,19.5 C 53.4698,27.7688 54.1364,36.4355 53.5,45.5C 46.904,47.6983 40.2373,49.6983 33.5,51.5C 33.3336,43.16 33.5003,34.8267 34,26.5C 40.0357,24.4379 45.8691,22.1046 51.5,19.5 Z"/>
    </g>
</svg>
