<?xml version="1.0" encoding="UTF-8"?>
<!DOCTYPE svg PUBLIC "-//W3C//DTD SVG 1.1//EN" "http://www.w3.org/Graphics/SVG/1.1/DTD/svg11.dtd">
<svg xmlns="http://www.w3.org/2000/svg" version="1.1" width="100px" height="100px"
     style="shape-rendering:geometricPrecision; text-rendering:geometricPrecision; image-rendering:optimizeQuality; fill-rule:evenodd; clip-rule:evenodd">
    <g>
        <path style="opacity:0.895" fill="#ffb041"
              d="M 47.5,3.5 C 48.8333,3.5 50.1667,3.5 51.5,3.5C 51.3335,14.1719 51.5002,24.8385 52,35.5C 55.1667,32.3333 58.3333,29.1667 61.5,26C 62.7932,25.51 64.1266,25.3433 65.5,25.5C 65.6567,26.8734 65.49,28.2068 65,29.5C 59.9853,34.6818 54.8186,39.6818 49.5,44.5C 43.316,39.1496 37.6494,33.3163 32.5,27C 33.9304,25.5596 35.597,25.2263 37.5,26C 40.6667,29.1667 43.8333,32.3333 47,35.5C 47.4998,24.8385 47.6665,14.1719 47.5,3.5 Z"/>
    </g>
    <g>
        <path style="opacity:0.889" fill="#ffaf42"
              d="M 3.5,41.5 C 25.0188,37.1852 33.8521,45.8518 30,67.5C 32.5,65 35,62.5 37.5,60C 39.403,59.2263 41.0696,59.5596 42.5,61C 38.0178,66.6492 33.0178,71.8158 27.5,76.5C 21.9822,71.8158 16.9822,66.6492 12.5,61C 13.9304,59.5596 15.597,59.2263 17.5,60C 20,62.5 22.5,65 25,67.5C 26.0807,60.9456 25.414,54.6123 23,48.5C 21.3523,47.283 19.519,46.4497 17.5,46C 12.8452,45.5008 8.17853,45.3342 3.5,45.5C 3.5,44.1667 3.5,42.8333 3.5,41.5 Z"/>
    </g>
    <g>
        <path style="opacity:0.89" fill="#ffaf42"
              d="M 76.5,41.5 C 82.8333,41.5 89.1667,41.5 95.5,41.5C 95.5,42.8333 95.5,44.1667 95.5,45.5C 90.8215,45.3342 86.1548,45.5008 81.5,46C 77,46.5 74.5,49 74,53.5C 73.3333,58.1667 73.3333,62.8333 74,67.5C 76.5,65 79,62.5 81.5,60C 82.7932,59.51 84.1266,59.3433 85.5,59.5C 85.6567,60.8734 85.49,62.2068 85,63.5C 80.6518,68.0153 76.1518,72.3487 71.5,76.5C 65.9822,71.8158 60.9822,66.6492 56.5,61C 57.9304,59.5596 59.597,59.2263 61.5,60C 64,62.5 66.5,65 69,67.5C 69.3333,61.1667 69.6667,54.8333 70,48.5C 71.6941,45.6424 73.8607,43.309 76.5,41.5 Z"/>
    </g>
    <g>
        <path style="opacity:0.994" fill="#ffaf41"
              d="M 3.5,75.5 C 4.83333,75.5 6.16667,75.5 7.5,75.5C 7.5,80.8333 7.5,86.1667 7.5,91.5C 35.5,91.5 63.5,91.5 91.5,91.5C 91.5,86.1667 91.5,80.8333 91.5,75.5C 92.8333,75.5 94.1667,75.5 95.5,75.5C 95.5,82.1667 95.5,88.8333 95.5,95.5C 64.8333,95.5 34.1667,95.5 3.5,95.5C 3.5,88.8333 3.5,82.1667 3.5,75.5 Z"/>
    </g>
</svg>
