<svg class="lds-dash-ring" width="40px" height="40px" xmlns="http://www.w3.org/2000/svg" viewBox="0 0 100 100"
     preserveAspectRatio="xMidYMid" style="background: none;">
  <g transform="rotate(90 50 50)">
    <animateTransform attributeName="transform" type="rotate" values="0 50 50;90 50 50" keyTimes="0;1" dur="0.7s"
                      repeatCount="indefinite"></animateTransform>
    <circle cx="50" cy="50" r="20" stroke="#ffb142" fill="none" stroke-dasharray="15.707963267948966 125.66370614359172"
            stroke-linecap="round" stroke-width="3" transform="rotate(0 50 50)">
      <animate attributeName="stroke" values="#ffb142;#ffb142" keyTimes="0;1" dur="0.7s"
               repeatCount="indefinite"></animate>
    </circle>
    <circle cx="50" cy="50" r="20" stroke="#ffb142" fill="none" stroke-dasharray="15.707963267948966 125.66370614359172"
            stroke-linecap="round" stroke-width="3" transform="rotate(90 50 50)">
      <animate attributeName="stroke" values="#ffb142;#ffb142" keyTimes="0;1" dur="0.7s"
               repeatCount="indefinite"></animate>
    </circle>
    <circle cx="50" cy="50" r="20" stroke="#ffb142" fill="none" stroke-dasharray="15.707963267948966 125.66370614359172"
            stroke-linecap="round" stroke-width="3" transform="rotate(180 50 50)">
      <animate attributeName="stroke" values="#ffb142;#ffb142" keyTimes="0;1" dur="0.7s"
               repeatCount="indefinite"></animate>
    </circle>
    <circle cx="50" cy="50" r="20" stroke="#ffb142" fill="none" stroke-dasharray="15.707963267948966 125.66370614359172"
            stroke-linecap="round" stroke-width="3" transform="rotate(270 50 50)">
      <animate attributeName="stroke" values="#ffb142;#ffb142" keyTimes="0;1" dur="0.7s"
               repeatCount="indefinite"></animate>
    </circle>
  </g>
</svg>
