<?xml version="1.0" encoding="UTF-8"?>
<!DOCTYPE svg PUBLIC "-//W3C//DTD SVG 1.1//EN" "http://www.w3.org/Graphics/SVG/1.1/DTD/svg11.dtd">
<svg xmlns="http://www.w3.org/2000/svg" version="1.1" width="100px" height="100px" style="shape-rendering:geometricPrecision; text-rendering:geometricPrecision; image-rendering:optimizeQuality; fill-rule:evenodd; clip-rule:evenodd" xmlns:xlink="http://www.w3.org/1999/xlink">
<g><path style="opacity:0.72" fill="#ffaf42" d="M 11.5,11.5 C 12.5,11.5 13.5,11.5 14.5,11.5C 14.5,12.5 14.5,13.5 14.5,14.5C 13.5,14.5 12.5,14.5 11.5,14.5C 11.5,13.5 11.5,12.5 11.5,11.5 Z"/></g>
<g><path style="opacity:0.72" fill="#ffaf42" d="M 16.5,11.5 C 17.5,11.5 18.5,11.5 19.5,11.5C 19.5,12.5 19.5,13.5 19.5,14.5C 18.5,14.5 17.5,14.5 16.5,14.5C 16.5,13.5 16.5,12.5 16.5,11.5 Z"/></g>
<g><path style="opacity:0.72" fill="#ffaf42" d="M 21.5,11.5 C 22.5,11.5 23.5,11.5 24.5,11.5C 24.5,12.5 24.5,13.5 24.5,14.5C 23.5,14.5 22.5,14.5 21.5,14.5C 21.5,13.5 21.5,12.5 21.5,11.5 Z"/></g>
<g><path style="opacity:0.72" fill="#ffaf42" d="M 26.5,11.5 C 27.5,11.5 28.5,11.5 29.5,11.5C 29.5,12.5 29.5,13.5 29.5,14.5C 28.5,14.5 27.5,14.5 26.5,14.5C 26.5,13.5 26.5,12.5 26.5,11.5 Z"/></g>
<g><path style="opacity:0.72" fill="#ffaf42" d="M 31.5,11.5 C 32.5,11.5 33.5,11.5 34.5,11.5C 34.5,12.5 34.5,13.5 34.5,14.5C 33.5,14.5 32.5,14.5 31.5,14.5C 31.5,13.5 31.5,12.5 31.5,11.5 Z"/></g>
<g><path style="opacity:0.72" fill="#ffaf42" d="M 36.5,11.5 C 37.5,11.5 38.5,11.5 39.5,11.5C 39.5,12.5 39.5,13.5 39.5,14.5C 38.5,14.5 37.5,14.5 36.5,14.5C 36.5,13.5 36.5,12.5 36.5,11.5 Z"/></g>
<g><path style="opacity:0.72" fill="#ffaf42" d="M 41.5,11.5 C 42.5,11.5 43.5,11.5 44.5,11.5C 44.5,12.5 44.5,13.5 44.5,14.5C 43.5,14.5 42.5,14.5 41.5,14.5C 41.5,13.5 41.5,12.5 41.5,11.5 Z"/></g>
<g><path style="opacity:0.72" fill="#ffaf42" d="M 46.5,11.5 C 47.5,11.5 48.5,11.5 49.5,11.5C 49.5,12.5 49.5,13.5 49.5,14.5C 48.5,14.5 47.5,14.5 46.5,14.5C 46.5,13.5 46.5,12.5 46.5,11.5 Z"/></g>
<g><path style="opacity:0.72" fill="#ffaf42" d="M 51.5,11.5 C 52.5,11.5 53.5,11.5 54.5,11.5C 54.5,12.5 54.5,13.5 54.5,14.5C 53.5,14.5 52.5,14.5 51.5,14.5C 51.5,13.5 51.5,12.5 51.5,11.5 Z"/></g>
<g><path style="opacity:0.72" fill="#ffaf42" d="M 56.5,11.5 C 57.5,11.5 58.5,11.5 59.5,11.5C 59.5,12.5 59.5,13.5 59.5,14.5C 58.5,14.5 57.5,14.5 56.5,14.5C 56.5,13.5 56.5,12.5 56.5,11.5 Z"/></g>
<g><path style="opacity:0.72" fill="#ffaf42" d="M 61.5,11.5 C 62.5,11.5 63.5,11.5 64.5,11.5C 64.5,12.5 64.5,13.5 64.5,14.5C 63.5,14.5 62.5,14.5 61.5,14.5C 61.5,13.5 61.5,12.5 61.5,11.5 Z"/></g>
<g><path style="opacity:0.566" fill="#ffaf41" d="M 15.5,15.5 C 16.5,15.5 17.5,15.5 18.5,15.5C 18.5,16.5 18.5,17.5 18.5,18.5C 17.5,18.5 16.5,18.5 15.5,18.5C 15.5,17.5 15.5,16.5 15.5,15.5 Z"/></g>
<g><path style="opacity:0.566" fill="#ffaf41" d="M 65.5,15.5 C 66.5,15.5 67.5,15.5 68.5,15.5C 68.5,16.5 68.5,17.5 68.5,18.5C 67.5,18.5 66.5,18.5 65.5,18.5C 65.5,17.5 65.5,16.5 65.5,15.5 Z"/></g>
<g><path style="opacity:0.72" fill="#ffaf42" d="M 11.5,16.5 C 12.5,16.5 13.5,16.5 14.5,16.5C 14.5,17.5 14.5,18.5 14.5,19.5C 13.5,19.5 12.5,19.5 11.5,19.5C 11.5,18.5 11.5,17.5 11.5,16.5 Z"/></g>
<g><path style="opacity:0.721" fill="#ffaf42" d="M 22.5,22.5 C 21.5,22.5 20.5,22.5 19.5,22.5C 19.5,21.5 19.5,20.5 19.5,19.5C 20.5,19.5 21.5,19.5 22.5,19.5C 22.5,20.5 22.5,21.5 22.5,22.5 Z"/></g>
<g><path style="opacity:0.721" fill="#ffaf42" d="M 69.5,19.5 C 70.5,19.5 71.5,19.5 72.5,19.5C 72.5,20.5 72.5,21.5 72.5,22.5C 71.5,22.5 70.5,22.5 69.5,22.5C 69.5,21.5 69.5,20.5 69.5,19.5 Z"/></g>
<g><path style="opacity:0.72" fill="#ffaf42" d="M 11.5,21.5 C 12.5,21.5 13.5,21.5 14.5,21.5C 14.5,22.5 14.5,23.5 14.5,24.5C 13.5,24.5 12.5,24.5 11.5,24.5C 11.5,23.5 11.5,22.5 11.5,21.5 Z"/></g>
<g><path style="opacity:0.782" fill="#ffaf42" d="M 22.5,22.5 C 33.8549,21.0222 45.1882,21.1888 56.5,23C 59.7012,26.5364 63.2012,29.7031 67,32.5C 67.4994,38.1569 67.6661,43.8236 67.5,49.5C 69.1667,49.5 70.8333,49.5 72.5,49.5C 72.2148,47.712 72.5481,46.0453 73.5,44.5C 76.6014,46.0984 79.2681,48.2651 81.5,51C 78.6884,52.9773 76.0217,55.144 73.5,57.5C 72.5481,55.9547 72.2148,54.288 72.5,52.5C 70.8333,52.5 69.1667,52.5 67.5,52.5C 67.5,57.5 67.5,62.5 67.5,67.5C 62.8333,67.5 58.1667,67.5 53.5,67.5C 53.5,69.1667 53.5,70.8333 53.5,72.5C 55.288,72.2148 56.9547,72.5481 58.5,73.5C 56.5729,76.35 54.4062,79.0167 52,81.5C 49.5938,79.0167 47.4271,76.35 45.5,73.5C 47.0453,72.5481 48.712,72.2148 50.5,72.5C 50.5,70.8333 50.5,69.1667 50.5,67.5C 45.1563,67.666 39.8229,67.4994 34.5,67C 30.6667,63.1667 26.8333,59.3333 23,55.5C 22.5002,44.505 22.3335,33.505 22.5,22.5 Z M 62.5,34.5 C 63.1174,34.6107 63.6174,34.944 64,35.5C 64.4998,45.1609 64.6665,54.8276 64.5,64.5C 55.1607,64.6665 45.8274,64.4998 36.5,64C 36.1667,63.6667 35.8333,63.3333 35.5,63C 36.9733,62.2904 37.6399,61.1238 37.5,59.5C 35.8762,59.3601 34.7096,60.0267 34,61.5C 31.6667,59.1667 29.3333,56.8333 27,54.5C 26.5003,46.1733 26.3336,37.84 26.5,29.5C 27.5,29.5 28.5,29.5 29.5,29.5C 29.5,28.5 29.5,27.5 29.5,26.5C 28.325,26.719 27.325,26.3857 26.5,25.5C 35.1475,24.3348 43.8142,24.1681 52.5,25C 56.3341,27.6682 59.6675,30.8348 62.5,34.5 Z"/></g>
<g><path style="opacity:0.966" fill="#ffaf44" d="M 73.5,22.5 C 76.8606,23.2032 77.1939,24.5365 74.5,26.5C 72.3576,25.5629 72.0243,24.2296 73.5,22.5 Z"/></g>
<g><path style="opacity:0.72" fill="#ffaf42" d="M 11.5,26.5 C 12.5,26.5 13.5,26.5 14.5,26.5C 14.5,27.5 14.5,28.5 14.5,29.5C 13.5,29.5 12.5,29.5 11.5,29.5C 11.5,28.5 11.5,27.5 11.5,26.5 Z"/></g>
<g><path style="opacity:0.72" fill="#ffaf42" d="M 76.5,26.5 C 77.5,26.5 78.5,26.5 79.5,26.5C 79.5,27.5 79.5,28.5 79.5,29.5C 78.5,29.5 77.5,29.5 76.5,29.5C 76.5,28.5 76.5,27.5 76.5,26.5 Z"/></g>
<g><path style="opacity:0.566" fill="#ffaf41" d="M 30.5,30.5 C 31.5,30.5 32.5,30.5 33.5,30.5C 33.5,31.5 33.5,32.5 33.5,33.5C 32.5,33.5 31.5,33.5 30.5,33.5C 30.5,32.5 30.5,31.5 30.5,30.5 Z"/></g>
<g><path style="opacity:0.566" fill="#ffaf41" d="M 80.5,30.5 C 81.5,30.5 82.5,30.5 83.5,30.5C 83.5,31.5 83.5,32.5 83.5,33.5C 82.5,33.5 81.5,33.5 80.5,33.5C 80.5,32.5 80.5,31.5 80.5,30.5 Z"/></g>
<g><path style="opacity:0.72" fill="#ffaf42" d="M 11.5,31.5 C 12.5,31.5 13.5,31.5 14.5,31.5C 14.5,32.5 14.5,33.5 14.5,34.5C 13.5,34.5 12.5,34.5 11.5,34.5C 11.5,33.5 11.5,32.5 11.5,31.5 Z"/></g>
<g><path style="opacity:0.721" fill="#ffaf42" d="M 34.5,34.5 C 35.5,34.5 36.5,34.5 37.5,34.5C 37.5,35.5 37.5,36.5 37.5,37.5C 36.5,37.5 35.5,37.5 34.5,37.5C 34.5,36.5 34.5,35.5 34.5,34.5 Z"/></g>
<g><path style="opacity:0.721" fill="#ffaf42" d="M 39.5,34.5 C 40.5,34.5 41.5,34.5 42.5,34.5C 42.5,35.5 42.5,36.5 42.5,37.5C 41.5,37.5 40.5,37.5 39.5,37.5C 39.5,36.5 39.5,35.5 39.5,34.5 Z"/></g>
<g><path style="opacity:0.721" fill="#ffaf42" d="M 44.5,34.5 C 45.5,34.5 46.5,34.5 47.5,34.5C 47.5,35.5 47.5,36.5 47.5,37.5C 46.5,37.5 45.5,37.5 44.5,37.5C 44.5,36.5 44.5,35.5 44.5,34.5 Z"/></g>
<g><path style="opacity:0.721" fill="#ffaf42" d="M 49.5,34.5 C 50.5,34.5 51.5,34.5 52.5,34.5C 52.5,35.5 52.5,36.5 52.5,37.5C 51.5,37.5 50.5,37.5 49.5,37.5C 49.5,36.5 49.5,35.5 49.5,34.5 Z"/></g>
<g><path style="opacity:0.721" fill="#ffaf42" d="M 54.5,34.5 C 55.5,34.5 56.5,34.5 57.5,34.5C 57.5,35.5 57.5,36.5 57.5,37.5C 56.5,37.5 55.5,37.5 54.5,37.5C 54.5,36.5 54.5,35.5 54.5,34.5 Z"/></g>
<g><path style="opacity:0.721" fill="#ffaf42" d="M 62.5,34.5 C 62.5,35.5 62.5,36.5 62.5,37.5C 61.5,37.5 60.5,37.5 59.5,37.5C 59.5,36.5 59.5,35.5 59.5,34.5C 60.5,34.5 61.5,34.5 62.5,34.5 Z"/></g>
<g><path style="opacity:0.721" fill="#ffaf42" d="M 69.5,34.5 C 70.5,34.5 71.5,34.5 72.5,34.5C 72.5,35.5 72.5,36.5 72.5,37.5C 71.5,37.5 70.5,37.5 69.5,37.5C 69.5,36.5 69.5,35.5 69.5,34.5 Z"/></g>
<g><path style="opacity:0.721" fill="#ffaf42" d="M 74.5,34.5 C 75.5,34.5 76.5,34.5 77.5,34.5C 77.5,35.5 77.5,36.5 77.5,37.5C 76.5,37.5 75.5,37.5 74.5,37.5C 74.5,36.5 74.5,35.5 74.5,34.5 Z"/></g>
<g><path style="opacity:0.721" fill="#ffaf42" d="M 79.5,34.5 C 80.5,34.5 81.5,34.5 82.5,34.5C 82.5,35.5 82.5,36.5 82.5,37.5C 81.5,37.5 80.5,37.5 79.5,37.5C 79.5,36.5 79.5,35.5 79.5,34.5 Z"/></g>
<g><path style="opacity:0.721" fill="#ffaf42" d="M 84.5,34.5 C 85.5,34.5 86.5,34.5 87.5,34.5C 87.5,35.5 87.5,36.5 87.5,37.5C 86.5,37.5 85.5,37.5 84.5,37.5C 84.5,36.5 84.5,35.5 84.5,34.5 Z"/></g>
<g><path style="opacity:0.72" fill="#ffaf42" d="M 11.5,36.5 C 12.5,36.5 13.5,36.5 14.5,36.5C 14.5,37.5 14.5,38.5 14.5,39.5C 13.5,39.5 12.5,39.5 11.5,39.5C 11.5,38.5 11.5,37.5 11.5,36.5 Z"/></g>
<g><path style="opacity:0.721" fill="#ffaf42" d="M 34.5,39.5 C 35.5,39.5 36.5,39.5 37.5,39.5C 37.5,40.5 37.5,41.5 37.5,42.5C 36.5,42.5 35.5,42.5 34.5,42.5C 34.5,41.5 34.5,40.5 34.5,39.5 Z"/></g>
<g><path style="opacity:0.721" fill="#ffaf42" d="M 84.5,39.5 C 85.5,39.5 86.5,39.5 87.5,39.5C 87.5,40.5 87.5,41.5 87.5,42.5C 86.5,42.5 85.5,42.5 84.5,42.5C 84.5,41.5 84.5,40.5 84.5,39.5 Z"/></g>
<g><path style="opacity:0.72" fill="#ffaf42" d="M 11.5,41.5 C 12.5,41.5 13.5,41.5 14.5,41.5C 14.5,42.5 14.5,43.5 14.5,44.5C 13.5,44.5 12.5,44.5 11.5,44.5C 11.5,43.5 11.5,42.5 11.5,41.5 Z"/></g>
<g><path style="opacity:0.721" fill="#ffaf42" d="M 34.5,44.5 C 35.5,44.5 36.5,44.5 37.5,44.5C 37.5,45.5 37.5,46.5 37.5,47.5C 36.5,47.5 35.5,47.5 34.5,47.5C 34.5,46.5 34.5,45.5 34.5,44.5 Z"/></g>
<g><path style="opacity:0.721" fill="#ffaf42" d="M 84.5,44.5 C 85.5,44.5 86.5,44.5 87.5,44.5C 87.5,45.5 87.5,46.5 87.5,47.5C 86.5,47.5 85.5,47.5 84.5,47.5C 84.5,46.5 84.5,45.5 84.5,44.5 Z"/></g>
<g><path style="opacity:0.72" fill="#ffaf42" d="M 11.5,46.5 C 12.5,46.5 13.5,46.5 14.5,46.5C 14.5,47.5 14.5,48.5 14.5,49.5C 13.5,49.5 12.5,49.5 11.5,49.5C 11.5,48.5 11.5,47.5 11.5,46.5 Z"/></g>
<g><path style="opacity:0.721" fill="#ffaf42" d="M 34.5,49.5 C 35.5,49.5 36.5,49.5 37.5,49.5C 37.5,50.5 37.5,51.5 37.5,52.5C 36.5,52.5 35.5,52.5 34.5,52.5C 34.5,51.5 34.5,50.5 34.5,49.5 Z"/></g>
<g><path style="opacity:0.721" fill="#ffaf42" d="M 84.5,49.5 C 85.5,49.5 86.5,49.5 87.5,49.5C 87.5,50.5 87.5,51.5 87.5,52.5C 86.5,52.5 85.5,52.5 84.5,52.5C 84.5,51.5 84.5,50.5 84.5,49.5 Z"/></g>
<g><path style="opacity:0.72" fill="#ffaf42" d="M 11.5,51.5 C 12.5,51.5 13.5,51.5 14.5,51.5C 14.5,52.5 14.5,53.5 14.5,54.5C 13.5,54.5 12.5,54.5 11.5,54.5C 11.5,53.5 11.5,52.5 11.5,51.5 Z"/></g>
<g><path style="opacity:0.721" fill="#ffaf42" d="M 34.5,54.5 C 35.5,54.5 36.5,54.5 37.5,54.5C 37.5,55.5 37.5,56.5 37.5,57.5C 36.5,57.5 35.5,57.5 34.5,57.5C 34.5,56.5 34.5,55.5 34.5,54.5 Z"/></g>
<g><path style="opacity:0.721" fill="#ffaf42" d="M 84.5,54.5 C 85.5,54.5 86.5,54.5 87.5,54.5C 87.5,55.5 87.5,56.5 87.5,57.5C 86.5,57.5 85.5,57.5 84.5,57.5C 84.5,56.5 84.5,55.5 84.5,54.5 Z"/></g>
<g><path style="opacity:0.72" fill="#ffaf42" d="M 11.5,56.5 C 12.5,56.5 13.5,56.5 14.5,56.5C 14.5,57.5 14.5,58.5 14.5,59.5C 13.5,59.5 12.5,59.5 11.5,59.5C 11.5,58.5 11.5,57.5 11.5,56.5 Z"/></g>
<g><path style="opacity:0.721" fill="#ffaf42" d="M 84.5,59.5 C 85.5,59.5 86.5,59.5 87.5,59.5C 87.5,60.5 87.5,61.5 87.5,62.5C 86.5,62.5 85.5,62.5 84.5,62.5C 84.5,61.5 84.5,60.5 84.5,59.5 Z"/></g>
<g><path style="opacity:0.72" fill="#ffaf42" d="M 11.5,61.5 C 12.5,61.5 13.5,61.5 14.5,61.5C 14.5,62.5 14.5,63.5 14.5,64.5C 13.5,64.5 12.5,64.5 11.5,64.5C 11.5,63.5 11.5,62.5 11.5,61.5 Z"/></g>
<g><path style="opacity:0.721" fill="#ffaf42" d="M 84.5,64.5 C 85.5,64.5 86.5,64.5 87.5,64.5C 87.5,65.5 87.5,66.5 87.5,67.5C 86.5,67.5 85.5,67.5 84.5,67.5C 84.5,66.5 84.5,65.5 84.5,64.5 Z"/></g>
<g><path style="opacity:0.546" fill="#ffb041" d="M 15.5,66.5 C 16.5,66.5 17.5,66.5 18.5,66.5C 18.5,67.5 18.5,68.5 18.5,69.5C 17.5,69.5 16.5,69.5 15.5,69.5C 15.5,68.5 15.5,67.5 15.5,66.5 Z"/></g>
<g><path style="opacity:0.721" fill="#ffaf42" d="M 34.5,69.5 C 35.5,69.5 36.5,69.5 37.5,69.5C 37.5,70.5 37.5,71.5 37.5,72.5C 36.5,72.5 35.5,72.5 34.5,72.5C 34.5,71.5 34.5,70.5 34.5,69.5 Z"/></g>
<g><path style="opacity:0.721" fill="#ffaf42" d="M 84.5,69.5 C 85.5,69.5 86.5,69.5 87.5,69.5C 87.5,70.5 87.5,71.5 87.5,72.5C 86.5,72.5 85.5,72.5 84.5,72.5C 84.5,71.5 84.5,70.5 84.5,69.5 Z"/></g>
<g><path style="opacity:0.564" fill="#ffaf41" d="M 19.5,70.5 C 20.5,70.5 21.5,70.5 22.5,70.5C 22.5,71.5 22.5,72.5 22.5,73.5C 21.5,73.5 20.5,73.5 19.5,73.5C 19.5,72.5 19.5,71.5 19.5,70.5 Z"/></g>
<g><path style="opacity:0.582" fill="#ffae41" d="M 22.5,74.5 C 23.9778,74.238 25.3112,74.5713 26.5,75.5C 24.5365,78.1939 23.2032,77.8606 22.5,74.5 Z"/></g>
<g><path style="opacity:0.721" fill="#ffaf42" d="M 34.5,74.5 C 35.5,74.5 36.5,74.5 37.5,74.5C 37.5,75.5 37.5,76.5 37.5,77.5C 36.5,77.5 35.5,77.5 34.5,77.5C 34.5,76.5 34.5,75.5 34.5,74.5 Z"/></g>
<g><path style="opacity:0.721" fill="#ffaf42" d="M 84.5,74.5 C 85.5,74.5 86.5,74.5 87.5,74.5C 87.5,75.5 87.5,76.5 87.5,77.5C 86.5,77.5 85.5,77.5 84.5,77.5C 84.5,76.5 84.5,75.5 84.5,74.5 Z"/></g>
<g><path style="opacity:0.641" fill="#ffae42" d="M 27.5,77.5 C 28.5862,77.62 29.2528,78.2867 29.5,79.5C 28.6964,81.9573 27.6964,81.9573 26.5,79.5C 26.8627,78.8165 27.1961,78.1499 27.5,77.5 Z"/></g>
<g><path style="opacity:0.721" fill="#ffaf42" d="M 34.5,79.5 C 35.5,79.5 36.5,79.5 37.5,79.5C 37.5,80.5 37.5,81.5 37.5,82.5C 36.5,82.5 35.5,82.5 34.5,82.5C 34.5,81.5 34.5,80.5 34.5,79.5 Z"/></g>
<g><path style="opacity:0.721" fill="#ffaf42" d="M 84.5,79.5 C 85.5,79.5 86.5,79.5 87.5,79.5C 87.5,80.5 87.5,81.5 87.5,82.5C 86.5,82.5 85.5,82.5 84.5,82.5C 84.5,81.5 84.5,80.5 84.5,79.5 Z"/></g>
<g><path style="opacity:0.546" fill="#ffb041" d="M 30.5,81.5 C 31.5,81.5 32.5,81.5 33.5,81.5C 33.5,82.5 33.5,83.5 33.5,84.5C 32.5,84.5 31.5,84.5 30.5,84.5C 30.5,83.5 30.5,82.5 30.5,81.5 Z"/></g>
<g><path style="opacity:0.721" fill="#ffaf42" d="M 34.5,84.5 C 35.5,84.5 36.5,84.5 37.5,84.5C 37.5,85.5 37.5,86.5 37.5,87.5C 36.5,87.5 35.5,87.5 34.5,87.5C 34.5,86.5 34.5,85.5 34.5,84.5 Z"/></g>
<g><path style="opacity:0.721" fill="#ffaf42" d="M 39.5,84.5 C 40.5,84.5 41.5,84.5 42.5,84.5C 42.5,85.5 42.5,86.5 42.5,87.5C 41.5,87.5 40.5,87.5 39.5,87.5C 39.5,86.5 39.5,85.5 39.5,84.5 Z"/></g>
<g><path style="opacity:0.721" fill="#ffaf42" d="M 44.5,84.5 C 45.5,84.5 46.5,84.5 47.5,84.5C 47.5,85.5 47.5,86.5 47.5,87.5C 46.5,87.5 45.5,87.5 44.5,87.5C 44.5,86.5 44.5,85.5 44.5,84.5 Z"/></g>
<g><path style="opacity:0.721" fill="#ffaf42" d="M 49.5,84.5 C 50.5,84.5 51.5,84.5 52.5,84.5C 52.5,85.5 52.5,86.5 52.5,87.5C 51.5,87.5 50.5,87.5 49.5,87.5C 49.5,86.5 49.5,85.5 49.5,84.5 Z"/></g>
<g><path style="opacity:0.721" fill="#ffaf42" d="M 54.5,84.5 C 55.5,84.5 56.5,84.5 57.5,84.5C 57.5,85.5 57.5,86.5 57.5,87.5C 56.5,87.5 55.5,87.5 54.5,87.5C 54.5,86.5 54.5,85.5 54.5,84.5 Z"/></g>
<g><path style="opacity:0.721" fill="#ffaf42" d="M 59.5,84.5 C 60.5,84.5 61.5,84.5 62.5,84.5C 62.5,85.5 62.5,86.5 62.5,87.5C 61.5,87.5 60.5,87.5 59.5,87.5C 59.5,86.5 59.5,85.5 59.5,84.5 Z"/></g>
<g><path style="opacity:0.721" fill="#ffaf42" d="M 64.5,84.5 C 65.5,84.5 66.5,84.5 67.5,84.5C 67.5,85.5 67.5,86.5 67.5,87.5C 66.5,87.5 65.5,87.5 64.5,87.5C 64.5,86.5 64.5,85.5 64.5,84.5 Z"/></g>
<g><path style="opacity:0.721" fill="#ffaf42" d="M 69.5,84.5 C 70.5,84.5 71.5,84.5 72.5,84.5C 72.5,85.5 72.5,86.5 72.5,87.5C 71.5,87.5 70.5,87.5 69.5,87.5C 69.5,86.5 69.5,85.5 69.5,84.5 Z"/></g>
<g><path style="opacity:0.721" fill="#ffaf42" d="M 74.5,84.5 C 75.5,84.5 76.5,84.5 77.5,84.5C 77.5,85.5 77.5,86.5 77.5,87.5C 76.5,87.5 75.5,87.5 74.5,87.5C 74.5,86.5 74.5,85.5 74.5,84.5 Z"/></g>
<g><path style="opacity:0.721" fill="#ffaf42" d="M 79.5,84.5 C 80.5,84.5 81.5,84.5 82.5,84.5C 82.5,85.5 82.5,86.5 82.5,87.5C 81.5,87.5 80.5,87.5 79.5,87.5C 79.5,86.5 79.5,85.5 79.5,84.5 Z"/></g>
<g><path style="opacity:0.721" fill="#ffaf42" d="M 84.5,84.5 C 85.5,84.5 86.5,84.5 87.5,84.5C 87.5,85.5 87.5,86.5 87.5,87.5C 86.5,87.5 85.5,87.5 84.5,87.5C 84.5,86.5 84.5,85.5 84.5,84.5 Z"/></g>
</svg>
